{
  "name": "Tecnologías de la Información y la Comunicación",
  "image": "portada.jpg",
  "temas": [
    {
      "tema": "Introducción",
      "subtemas": [
      	{
          "tema": "Legal",
          "url": "legal.html"
        },
        {
          "tema": "Presentación",
          "url": "presentacion.html"
        },
        {
          "tema": "Primer parcial",
          "url": "index.html"
        },
        {
          "tema": "Transversalidad de los aprendizajes",
          "url": "aprendizajes.html"
        },
        {
          "tema": "Proyecto formativo",
          "url": "proyecto_formativo.html"
        },
        {
          "tema": "Actividad de motivación",
          "url": "actividad_de_motivacion.html"
        },
        {
          "tema": "Evaluación diagnóstica",
          "url": "evaluacion_diagnostica.html"
        }
      ]
    },
    {
      "tema": "El trabajo colaborativo en el aula",
      "subtemas": [
        {
          "tema": "El trabajo colaborativo en el aula",
          "url": "tema1.0.0.html"
        },
        {
          "tema": "El uso de la tecnología para el aprendizaje",
          "url": "tema1.1.0.html"
        },
        {
          "tema": "Actividad 1",
          "url": "tema1.1.0A1.html"
        },
        {
          "tema": "Cómo interactúo con la información",
          "url": "tema1.2.0.html"
        },
        {
          "tema": "Actividad 2",
          "url": "tema1.2.0A2.html"
        },
        {
          "tema": "Actividad 3",
          "url": "tema1.2.0A3.html"
        },
        {
          "tema": "Mi eslogan publicitario",
          "url": "tema1.2.0A3_dhs.html"
        },
        {
          "tema": "Evaluación formativa",
          "url": "tema1.2.0A3_evaluacion_formativa.html"
        },
        {
          "tema": "Proyecto formativo",
          "url": "tema1.2.0A3_proyecto_formativo.html"
        }

      ]
    },
    {
      "tema": "El impacto de la tecnología en el desarrollo humano",
      "subtemas": [
        {
          "tema": "El impacto de la tecnología en el desarrollo humano",
          "url": "tema2.0.0.html"
        },
        {
          "tema": "Actividad 4",
          "url": "tema2.0.0A4.html"
        },
        {
          "tema": "La tecnología en las actividades cotidianas",
          "url": "tema2.1.0.html"
        },
        {
          "tema": "Actividad 5",
          "url": "tema2.1.0A5.html"
        },
        {
          "tema": "La tecnología y la comunicación humana",
          "url": "tema2.2.0.html"
        },
        {
          "tema": "Actividad 6",
          "url": "tema2.2.0A6.html"
        },
        {
          "tema": "Comunicación",
          "url": "tema2.2.0A6_dhs.html"
        },
        {
          "tema": "Actividad transversal",
          "url": "tema2.2.0A6_actividad_transversal.html"
        },
        {
          "tema": "Evaluación formativa",
          "url": "tema2.2.0A6_evaluacion_formativa.html"
        },
        {
          "tema": "Proyecto formativo",
          "url": "tema2.2.0A6_proyecto_formativo.html"
        },
        {
          "tema": "Fomento a la lectura",
          "url": "tema2.2.0A6_lectura.html"
        },
        {
          "tema": "Oriéntate",
          "url": "tema2.2.0A6_orientate.html"
        },
        {
          "tema": "Registro de desarrollo de competencias",
          "url": "tema2.2.0A6_desarrollo_de_competencias.html"
        },
        {
          "tema": "Evaluación sumativa",
          "url": "tema2.2.0A6_evaluacion_sumativa.html"
        },
        {
          "tema": "Prueba tipo PLANEA",
          "url": "tema2.2.0A6_prueba_planea.html"
        }

      ]
    }
  ]
}